{"context": " More than 1 year has passed since last update.http://www.infoteria.com/jp/news/ref/2014/02/17_01.php\n\u3053\u3093\u306a\u611f\u3058\u3002\nruby -ruri -e 'puts URI.encode \"http://api.aitc.jp:80/jmardb/search?datetime=2013-01-01 00:00:00&datetime=2013-02-01 00:00:00&areaname=\u685c\u5cf6\"' | xargs curl | jq \".\"\n\n{\n  \"paging\": {\n    \"totalCount\": 229,\n    \"previous\": null,\n    \"next\": \"http://api.aitc.jp/jmardb/search?datetime=2013-01-01+00%3A00%3A00&datetime=2013-02-01+00%3A00%3A00&areaname=%E6%A1%9C%E5%B3%B6&order=old&limit=20&offset=20\"\n  },\n  \"data\": [\n    {\n      \"title\": \"\u5674\u706b\u306b\u95a2\u3059\u308b\u706b\u5c71\u89b3\u6e2c\u5831\",\n      \"link\": \"http://api.aitc.jp/jmardb/reports/67f1f2fa-c9a9-4747-9c65-5f4aca4fefa2\",\n      \"headline\": [\n        \"\u706b\u3000\u3000\u5c71\uff1a\u685c\u5cf6\\n\u65e5\u3000\u3000\u6642\uff1a2013\u5e7401\u670802\u65e503\u664235\u5206\uff08011835UTC\uff09 \u7b2c1\u5831\\n\u73fe\u3000\u3000\u8c61\uff1a\u7206\u767a\"\n      ],\n      \"datetime\": \"2013-01-02 03:41:01\"\n    },\n    {\n      \"title\": \"\u5674\u706b\u306b\u95a2\u3059\u308b\u706b\u5c71\u89b3\u6e2c\u5831\",\n      \"link\": \"http://api.aitc.jp/jmardb/reports/3dd6e44c-a7b2-4a9b-97be-4d2e4476b46c\",\n      \"headline\": [\n        \"\u706b\u3000\u3000\u5c71\uff1a\u685c\u5cf6\\n\u65e5\u3000\u3000\u6642\uff1a2013\u5e7401\u670802\u65e503\u664235\u5206\uff08011835UTC\uff09 \u7b2c2\u5831\\n\u73fe\u3000\u3000\u8c61\uff1a\u7206\u767a\"\n      ],\n      \"datetime\": \"2013-01-02 03:46:31\"\n    },\n    {\n      \"title\": \"\u5674\u706b\u306b\u95a2\u3059\u308b\u706b\u5c71\u89b3\u6e2c\u5831\",\n      \"link\": \"http://api.aitc.jp/jmardb/reports/ae35ffa0-3b4e-4418-8720-55625b21e87c\",\n      \"headline\": [\n        \"\u706b\u3000\u3000\u5c71\uff1a\u685c\u5cf6\\n\u65e5\u3000\u3000\u6642\uff1a2013\u5e7401\u670802\u65e508\u664225\u5206\uff08012325UTC\uff09 \u7b2c1\u5831\\n\u73fe\u3000\u3000\u8c61\uff1a\u7206\u767a\"\n      ],\n      \"datetime\": \"2013-01-02 08:29:14\"\n    },\n    {\n      \"title\": \"\u5674\u706b\u306b\u95a2\u3059\u308b\u706b\u5c71\u89b3\u6e2c\u5831\",\n      \"link\": \"http://api.aitc.jp/jmardb/reports/1d6d6f2b-1110-43b8-9cba-69f782ad71ae\",\n      \"headline\": [\n        \"\u706b\u3000\u3000\u5c71\uff1a\u685c\u5cf6\\n\u65e5\u3000\u3000\u6642\uff1a2013\u5e7401\u670802\u65e508\u664225\u5206\uff08012325UTC\uff09 \u7b2c2\u5831\\n\u73fe\u3000\u3000\u8c61\uff1a\u7206\u767a\"\n      ],\n      \"datetime\": \"2013-01-02 08:31:44\"\n    },\n    {\n      \"title\": \"\u5674\u706b\u306b\u95a2\u3059\u308b\u706b\u5c71\u89b3\u6e2c\u5831\",\n      \"link\": \"http://api.aitc.jp/jmardb/reports/90bfa228-64bd-4a5e-ab5b-22733afe5bfb\",\n      \"headline\": [\n        \"\u706b\u3000\u3000\u5c71\uff1a\u685c\u5cf6\\n\u65e5\u3000\u3000\u6642\uff1a2013\u5e7401\u670802\u65e508\u664247\u5206\uff08012347UTC\uff09 \u7b2c1\u5831\\n\u73fe\u3000\u3000\u8c61\uff1a\u7206\u767a\"\n      ],\n      \"datetime\": \"2013-01-02 08:52:01\"\n    },\n    {\n      \"title\": \"\u5674\u706b\u306b\u95a2\u3059\u308b\u706b\u5c71\u89b3\u6e2c\u5831\",\n      \"link\": \"http://api.aitc.jp/jmardb/reports/a4fe901b-b935-4791-a0c4-be4d559d59d5\",\n      \"headline\": [\n        \"\u706b\u3000\u3000\u5c71\uff1a\u685c\u5cf6\\n\u65e5\u3000\u3000\u6642\uff1a2013\u5e7401\u670802\u65e508\u664247\u5206\uff08012347UTC\uff09 \u7b2c2\u5831\\n\u73fe\u3000\u3000\u8c61\uff1a\u7206\u767a\"\n      ],\n      \"datetime\": \"2013-01-02 08:55:28\"\n    },\n    {\n      \"title\": \"\u5674\u706b\u306b\u95a2\u3059\u308b\u706b\u5c71\u89b3\u6e2c\u5831\",\n      \"link\": \"http://api.aitc.jp/jmardb/reports/bfdcd218-8100-4828-8002-144e0247d9a5\",\n      \"headline\": [\n        \"\u706b\u3000\u3000\u5c71\uff1a\u685c\u5cf6\\n\u65e5\u3000\u3000\u6642\uff1a2013\u5e7401\u670802\u65e515\u664243\u5206\uff08020643UTC\uff09 \u7b2c1\u5831\\n\u73fe\u3000\u3000\u8c61\uff1a\u7206\u767a\"\n      ],\n      \"datetime\": \"2013-01-02 15:47:06\"\n    },\n    {\n      \"title\": \"\u5674\u706b\u306b\u95a2\u3059\u308b\u706b\u5c71\u89b3\u6e2c\u5831\",\n      \"link\": \"http://api.aitc.jp/jmardb/reports/e334acdf-0ccb-4bce-b62d-e3c153097083\",\n      \"headline\": [\n        \"\u706b\u3000\u3000\u5c71\uff1a\u685c\u5cf6\\n\u65e5\u3000\u3000\u6642\uff1a2013\u5e7401\u670802\u65e515\u664243\u5206\uff08020643UTC\uff09 \u7b2c2\u5831\\n\u73fe\u3000\u3000\u8c61\uff1a\u7206\u767a\"\n      ],\n      \"datetime\": \"2013-01-02 15:49:25\"\n    },\n    {\n      \"title\": \"\u5674\u706b\u306b\u95a2\u3059\u308b\u706b\u5c71\u89b3\u6e2c\u5831\",\n      \"link\": \"http://api.aitc.jp/jmardb/reports/d3eabd9b-1611-484d-b514-27da04ae26e8\",\n      \"headline\": [\n        \"\u706b\u3000\u3000\u5c71\uff1a\u685c\u5cf6\\n\u65e5\u3000\u3000\u6642\uff1a2013\u5e7401\u670804\u65e510\u664211\u5206\uff08040111UTC\uff09\\n\u73fe\u3000\u3000\u8c61\uff1a\u5674\u706b\"\n      ],\n      \"datetime\": \"2013-01-04 10:18:27\"\n    },\n    {\n      \"title\": \"\u706b\u5c71\u306e\u72b6\u6cc1\u306b\u95a2\u3059\u308b\u89e3\u8aac\u60c5\u5831\",\n      \"link\": \"http://api.aitc.jp/jmardb/reports/0a10b476-931b-45d0-8969-96527158ff0e\",\n      \"headline\": [\n        \"\uff1c\u706b\u53e3\u5468\u8fba\u8b66\u5831\uff08\u5674\u706b\u8b66\u6212\u30ec\u30d9\u30eb\uff13\u3001\u5165\u5c71\u898f\u5236\uff09\u304c\u7d99\u7d9a\uff1e\"\n      ],\n      \"datetime\": \"2013-01-04 16:00:24\"\n    },\n    {\n      \"title\": \"\u5674\u706b\u306b\u95a2\u3059\u308b\u706b\u5c71\u89b3\u6e2c\u5831\",\n      \"link\": \"http://api.aitc.jp/jmardb/reports/5576aef2-a5e5-49ab-bb10-bc904ed9f3a4\",\n      \"headline\": [\n        \"\u706b\u3000\u3000\u5c71\uff1a\u685c\u5cf6\\n\u65e5\u3000\u3000\u6642\uff1a2013\u5e7401\u670805\u65e503\u664220\u5206\uff08041820UTC\uff09 \u7b2c1\u5831\\n\u73fe\u3000\u3000\u8c61\uff1a\u7206\u767a\"\n      ],\n      \"datetime\": \"2013-01-05 03:25:00\"\n    },\n    {\n      \"title\": \"\u5674\u706b\u306b\u95a2\u3059\u308b\u706b\u5c71\u89b3\u6e2c\u5831\",\n      \"link\": \"http://api.aitc.jp/jmardb/reports/a1997c8a-4991-4432-9cf1-2f9bd54017e0\",\n      \"headline\": [\n        \"\u706b\u3000\u3000\u5c71\uff1a\u685c\u5cf6\\n\u65e5\u3000\u3000\u6642\uff1a2013\u5e7401\u670805\u65e503\u664220\u5206\uff08041820UTC\uff09 \u7b2c2\u5831\\n\u73fe\u3000\u3000\u8c61\uff1a\u7206\u767a\"\n      ],\n      \"datetime\": \"2013-01-05 03:33:46\"\n    },\n    {\n      \"title\": \"\u5674\u706b\u306b\u95a2\u3059\u308b\u706b\u5c71\u89b3\u6e2c\u5831\",\n      \"link\": \"http://api.aitc.jp/jmardb/reports/945512ea-0818-4fd7-9dc8-42657adcdc9c\",\n      \"headline\": [\n        \"\u706b\u3000\u3000\u5c71\uff1a\u685c\u5cf6\\n\u65e5\u3000\u3000\u6642\uff1a2013\u5e7401\u670805\u65e506\u664254\u5206\uff08042154UTC\uff09 \u7b2c1\u5831\\n\u73fe\u3000\u3000\u8c61\uff1a\u7206\u767a\"\n      ],\n      \"datetime\": \"2013-01-05 07:00:20\"\n    },\n    {\n      \"title\": \"\u5674\u706b\u306b\u95a2\u3059\u308b\u706b\u5c71\u89b3\u6e2c\u5831\",\n      \"link\": \"http://api.aitc.jp/jmardb/reports/9070380e-c6b4-4b68-b511-12b2ae2c34cd\",\n      \"headline\": [\n        \"\u706b\u3000\u3000\u5c71\uff1a\u685c\u5cf6\\n\u65e5\u3000\u3000\u6642\uff1a2013\u5e7401\u670805\u65e506\u664254\u5206\uff08042154UTC\uff09 \u7b2c2\u5831\\n\u73fe\u3000\u3000\u8c61\uff1a\u7206\u767a\"\n      ],\n      \"datetime\": \"2013-01-05 07:04:58\"\n    },\n    {\n      \"title\": \"\u5674\u706b\u306b\u95a2\u3059\u308b\u706b\u5c71\u89b3\u6e2c\u5831\",\n      \"link\": \"http://api.aitc.jp/jmardb/reports/a066029e-b75e-416a-8ad8-ab10dd66cd82\",\n      \"headline\": [\n        \"\u706b\u3000\u3000\u5c71\uff1a\u685c\u5cf6\\n\u65e5\u3000\u3000\u6642\uff1a2013\u5e7401\u670805\u65e507\u664233\u5206\uff08042233UTC\uff09 \u7b2c1\u5831\\n\u73fe\u3000\u3000\u8c61\uff1a\u7206\u767a\"\n      ],\n      \"datetime\": \"2013-01-05 07:40:12\"\n    },\n    {\n      \"title\": \"\u5674\u706b\u306b\u95a2\u3059\u308b\u706b\u5c71\u89b3\u6e2c\u5831\",\n      \"link\": \"http://api.aitc.jp/jmardb/reports/5fd6d300-d577-4737-b537-56dd73a6112a\",\n      \"headline\": [\n        \"\u706b\u3000\u3000\u5c71\uff1a\u685c\u5cf6\\n\u65e5\u3000\u3000\u6642\uff1a2013\u5e7401\u670805\u65e507\u664233\u5206\uff08042233UTC\uff09 \u7b2c2\u5831\\n\u73fe\u3000\u3000\u8c61\uff1a\u7206\u767a\"\n      ],\n      \"datetime\": \"2013-01-05 07:43:40\"\n    },\n    {\n      \"title\": \"\u5674\u706b\u306b\u95a2\u3059\u308b\u706b\u5c71\u89b3\u6e2c\u5831\",\n      \"link\": \"http://api.aitc.jp/jmardb/reports/8e15e84f-1bb2-4e7a-8b13-715779bde867\",\n      \"headline\": [\n        \"\u706b\u3000\u3000\u5c71\uff1a\u685c\u5cf6\\n\u65e5\u3000\u3000\u6642\uff1a2013\u5e7401\u670806\u65e523\u664249\u5206\uff08061449UTC\uff09 \u7b2c1\u5831\\n\u73fe\u3000\u3000\u8c61\uff1a\u7206\u767a\"\n      ],\n      \"datetime\": \"2013-01-06 23:53:11\"\n    },\n    {\n      \"title\": \"\u5674\u706b\u306b\u95a2\u3059\u308b\u706b\u5c71\u89b3\u6e2c\u5831\",\n      \"link\": \"http://api.aitc.jp/jmardb/reports/dd6cbada-8600-448f-9925-360a8febdaab\",\n      \"headline\": [\n        \"\u706b\u3000\u3000\u5c71\uff1a\u685c\u5cf6\\n\u65e5\u3000\u3000\u6642\uff1a2013\u5e7401\u670806\u65e523\u664249\u5206\uff08061449UTC\uff09 \u7b2c2\u5831\\n\u73fe\u3000\u3000\u8c61\uff1a\u7206\u767a\"\n      ],\n      \"datetime\": \"2013-01-06 23:59:11\"\n    },\n    {\n      \"title\": \"\u5674\u706b\u306b\u95a2\u3059\u308b\u706b\u5c71\u89b3\u6e2c\u5831\",\n      \"link\": \"http://api.aitc.jp/jmardb/reports/3fa658cc-e418-45a4-99af-ceaf64ce4e1a\",\n      \"headline\": [\n        \"\u706b\u3000\u3000\u5c71\uff1a\u685c\u5cf6\\n\u65e5\u3000\u3000\u6642\uff1a2013\u5e7401\u670807\u65e501\u664202\u5206\uff08061602UTC\uff09 \u7b2c1\u5831\\n\u73fe\u3000\u3000\u8c61\uff1a\u7206\u767a\"\n      ],\n      \"datetime\": \"2013-01-07 01:06:51\"\n    },\n    {\n      \"title\": \"\u5674\u706b\u306b\u95a2\u3059\u308b\u706b\u5c71\u89b3\u6e2c\u5831\",\n      \"link\": \"http://api.aitc.jp/jmardb/reports/761ef459-a93d-4b46-8cd6-c2d13ec4a85c\",\n      \"headline\": [\n        \"\u706b\u3000\u3000\u5c71\uff1a\u685c\u5cf6\\n\u65e5\u3000\u3000\u6642\uff1a2013\u5e7401\u670807\u65e501\u664202\u5206\uff08061602UTC\uff09 \u7b2c2\u5831\\n\u73fe\u3000\u3000\u8c61\uff1a\u7206\u767a\"\n      ],\n      \"datetime\": \"2013-01-07 01:13:49\"\n    }\n  ]\n}\n\n\nhttp://www.infoteria.com/jp/news/ref/2014/02/17_01.php\n\n\u3053\u3093\u306a\u611f\u3058\u3002\n\n```\nruby -ruri -e 'puts URI.encode \"http://api.aitc.jp:80/jmardb/search?datetime=2013-01-01 00:00:00&datetime=2013-02-01 00:00:00&areaname=\u685c\u5cf6\"' | xargs curl | jq \".\"\n```\n\n```\n{\n  \"paging\": {\n    \"totalCount\": 229,\n    \"previous\": null,\n    \"next\": \"http://api.aitc.jp/jmardb/search?datetime=2013-01-01+00%3A00%3A00&datetime=2013-02-01+00%3A00%3A00&areaname=%E6%A1%9C%E5%B3%B6&order=old&limit=20&offset=20\"\n  },\n  \"data\": [\n    {\n      \"title\": \"\u5674\u706b\u306b\u95a2\u3059\u308b\u706b\u5c71\u89b3\u6e2c\u5831\",\n      \"link\": \"http://api.aitc.jp/jmardb/reports/67f1f2fa-c9a9-4747-9c65-5f4aca4fefa2\",\n      \"headline\": [\n        \"\u706b\u3000\u3000\u5c71\uff1a\u685c\u5cf6\\n\u65e5\u3000\u3000\u6642\uff1a2013\u5e7401\u670802\u65e503\u664235\u5206\uff08011835UTC\uff09 \u7b2c1\u5831\\n\u73fe\u3000\u3000\u8c61\uff1a\u7206\u767a\"\n      ],\n      \"datetime\": \"2013-01-02 03:41:01\"\n    },\n    {\n      \"title\": \"\u5674\u706b\u306b\u95a2\u3059\u308b\u706b\u5c71\u89b3\u6e2c\u5831\",\n      \"link\": \"http://api.aitc.jp/jmardb/reports/3dd6e44c-a7b2-4a9b-97be-4d2e4476b46c\",\n      \"headline\": [\n        \"\u706b\u3000\u3000\u5c71\uff1a\u685c\u5cf6\\n\u65e5\u3000\u3000\u6642\uff1a2013\u5e7401\u670802\u65e503\u664235\u5206\uff08011835UTC\uff09 \u7b2c2\u5831\\n\u73fe\u3000\u3000\u8c61\uff1a\u7206\u767a\"\n      ],\n      \"datetime\": \"2013-01-02 03:46:31\"\n    },\n    {\n      \"title\": \"\u5674\u706b\u306b\u95a2\u3059\u308b\u706b\u5c71\u89b3\u6e2c\u5831\",\n      \"link\": \"http://api.aitc.jp/jmardb/reports/ae35ffa0-3b4e-4418-8720-55625b21e87c\",\n      \"headline\": [\n        \"\u706b\u3000\u3000\u5c71\uff1a\u685c\u5cf6\\n\u65e5\u3000\u3000\u6642\uff1a2013\u5e7401\u670802\u65e508\u664225\u5206\uff08012325UTC\uff09 \u7b2c1\u5831\\n\u73fe\u3000\u3000\u8c61\uff1a\u7206\u767a\"\n      ],\n      \"datetime\": \"2013-01-02 08:29:14\"\n    },\n    {\n      \"title\": \"\u5674\u706b\u306b\u95a2\u3059\u308b\u706b\u5c71\u89b3\u6e2c\u5831\",\n      \"link\": \"http://api.aitc.jp/jmardb/reports/1d6d6f2b-1110-43b8-9cba-69f782ad71ae\",\n      \"headline\": [\n        \"\u706b\u3000\u3000\u5c71\uff1a\u685c\u5cf6\\n\u65e5\u3000\u3000\u6642\uff1a2013\u5e7401\u670802\u65e508\u664225\u5206\uff08012325UTC\uff09 \u7b2c2\u5831\\n\u73fe\u3000\u3000\u8c61\uff1a\u7206\u767a\"\n      ],\n      \"datetime\": \"2013-01-02 08:31:44\"\n    },\n    {\n      \"title\": \"\u5674\u706b\u306b\u95a2\u3059\u308b\u706b\u5c71\u89b3\u6e2c\u5831\",\n      \"link\": \"http://api.aitc.jp/jmardb/reports/90bfa228-64bd-4a5e-ab5b-22733afe5bfb\",\n      \"headline\": [\n        \"\u706b\u3000\u3000\u5c71\uff1a\u685c\u5cf6\\n\u65e5\u3000\u3000\u6642\uff1a2013\u5e7401\u670802\u65e508\u664247\u5206\uff08012347UTC\uff09 \u7b2c1\u5831\\n\u73fe\u3000\u3000\u8c61\uff1a\u7206\u767a\"\n      ],\n      \"datetime\": \"2013-01-02 08:52:01\"\n    },\n    {\n      \"title\": \"\u5674\u706b\u306b\u95a2\u3059\u308b\u706b\u5c71\u89b3\u6e2c\u5831\",\n      \"link\": \"http://api.aitc.jp/jmardb/reports/a4fe901b-b935-4791-a0c4-be4d559d59d5\",\n      \"headline\": [\n        \"\u706b\u3000\u3000\u5c71\uff1a\u685c\u5cf6\\n\u65e5\u3000\u3000\u6642\uff1a2013\u5e7401\u670802\u65e508\u664247\u5206\uff08012347UTC\uff09 \u7b2c2\u5831\\n\u73fe\u3000\u3000\u8c61\uff1a\u7206\u767a\"\n      ],\n      \"datetime\": \"2013-01-02 08:55:28\"\n    },\n    {\n      \"title\": \"\u5674\u706b\u306b\u95a2\u3059\u308b\u706b\u5c71\u89b3\u6e2c\u5831\",\n      \"link\": \"http://api.aitc.jp/jmardb/reports/bfdcd218-8100-4828-8002-144e0247d9a5\",\n      \"headline\": [\n        \"\u706b\u3000\u3000\u5c71\uff1a\u685c\u5cf6\\n\u65e5\u3000\u3000\u6642\uff1a2013\u5e7401\u670802\u65e515\u664243\u5206\uff08020643UTC\uff09 \u7b2c1\u5831\\n\u73fe\u3000\u3000\u8c61\uff1a\u7206\u767a\"\n      ],\n      \"datetime\": \"2013-01-02 15:47:06\"\n    },\n    {\n      \"title\": \"\u5674\u706b\u306b\u95a2\u3059\u308b\u706b\u5c71\u89b3\u6e2c\u5831\",\n      \"link\": \"http://api.aitc.jp/jmardb/reports/e334acdf-0ccb-4bce-b62d-e3c153097083\",\n      \"headline\": [\n        \"\u706b\u3000\u3000\u5c71\uff1a\u685c\u5cf6\\n\u65e5\u3000\u3000\u6642\uff1a2013\u5e7401\u670802\u65e515\u664243\u5206\uff08020643UTC\uff09 \u7b2c2\u5831\\n\u73fe\u3000\u3000\u8c61\uff1a\u7206\u767a\"\n      ],\n      \"datetime\": \"2013-01-02 15:49:25\"\n    },\n    {\n      \"title\": \"\u5674\u706b\u306b\u95a2\u3059\u308b\u706b\u5c71\u89b3\u6e2c\u5831\",\n      \"link\": \"http://api.aitc.jp/jmardb/reports/d3eabd9b-1611-484d-b514-27da04ae26e8\",\n      \"headline\": [\n        \"\u706b\u3000\u3000\u5c71\uff1a\u685c\u5cf6\\n\u65e5\u3000\u3000\u6642\uff1a2013\u5e7401\u670804\u65e510\u664211\u5206\uff08040111UTC\uff09\\n\u73fe\u3000\u3000\u8c61\uff1a\u5674\u706b\"\n      ],\n      \"datetime\": \"2013-01-04 10:18:27\"\n    },\n    {\n      \"title\": \"\u706b\u5c71\u306e\u72b6\u6cc1\u306b\u95a2\u3059\u308b\u89e3\u8aac\u60c5\u5831\",\n      \"link\": \"http://api.aitc.jp/jmardb/reports/0a10b476-931b-45d0-8969-96527158ff0e\",\n      \"headline\": [\n        \"\uff1c\u706b\u53e3\u5468\u8fba\u8b66\u5831\uff08\u5674\u706b\u8b66\u6212\u30ec\u30d9\u30eb\uff13\u3001\u5165\u5c71\u898f\u5236\uff09\u304c\u7d99\u7d9a\uff1e\"\n      ],\n      \"datetime\": \"2013-01-04 16:00:24\"\n    },\n    {\n      \"title\": \"\u5674\u706b\u306b\u95a2\u3059\u308b\u706b\u5c71\u89b3\u6e2c\u5831\",\n      \"link\": \"http://api.aitc.jp/jmardb/reports/5576aef2-a5e5-49ab-bb10-bc904ed9f3a4\",\n      \"headline\": [\n        \"\u706b\u3000\u3000\u5c71\uff1a\u685c\u5cf6\\n\u65e5\u3000\u3000\u6642\uff1a2013\u5e7401\u670805\u65e503\u664220\u5206\uff08041820UTC\uff09 \u7b2c1\u5831\\n\u73fe\u3000\u3000\u8c61\uff1a\u7206\u767a\"\n      ],\n      \"datetime\": \"2013-01-05 03:25:00\"\n    },\n    {\n      \"title\": \"\u5674\u706b\u306b\u95a2\u3059\u308b\u706b\u5c71\u89b3\u6e2c\u5831\",\n      \"link\": \"http://api.aitc.jp/jmardb/reports/a1997c8a-4991-4432-9cf1-2f9bd54017e0\",\n      \"headline\": [\n        \"\u706b\u3000\u3000\u5c71\uff1a\u685c\u5cf6\\n\u65e5\u3000\u3000\u6642\uff1a2013\u5e7401\u670805\u65e503\u664220\u5206\uff08041820UTC\uff09 \u7b2c2\u5831\\n\u73fe\u3000\u3000\u8c61\uff1a\u7206\u767a\"\n      ],\n      \"datetime\": \"2013-01-05 03:33:46\"\n    },\n    {\n      \"title\": \"\u5674\u706b\u306b\u95a2\u3059\u308b\u706b\u5c71\u89b3\u6e2c\u5831\",\n      \"link\": \"http://api.aitc.jp/jmardb/reports/945512ea-0818-4fd7-9dc8-42657adcdc9c\",\n      \"headline\": [\n        \"\u706b\u3000\u3000\u5c71\uff1a\u685c\u5cf6\\n\u65e5\u3000\u3000\u6642\uff1a2013\u5e7401\u670805\u65e506\u664254\u5206\uff08042154UTC\uff09 \u7b2c1\u5831\\n\u73fe\u3000\u3000\u8c61\uff1a\u7206\u767a\"\n      ],\n      \"datetime\": \"2013-01-05 07:00:20\"\n    },\n    {\n      \"title\": \"\u5674\u706b\u306b\u95a2\u3059\u308b\u706b\u5c71\u89b3\u6e2c\u5831\",\n      \"link\": \"http://api.aitc.jp/jmardb/reports/9070380e-c6b4-4b68-b511-12b2ae2c34cd\",\n      \"headline\": [\n        \"\u706b\u3000\u3000\u5c71\uff1a\u685c\u5cf6\\n\u65e5\u3000\u3000\u6642\uff1a2013\u5e7401\u670805\u65e506\u664254\u5206\uff08042154UTC\uff09 \u7b2c2\u5831\\n\u73fe\u3000\u3000\u8c61\uff1a\u7206\u767a\"\n      ],\n      \"datetime\": \"2013-01-05 07:04:58\"\n    },\n    {\n      \"title\": \"\u5674\u706b\u306b\u95a2\u3059\u308b\u706b\u5c71\u89b3\u6e2c\u5831\",\n      \"link\": \"http://api.aitc.jp/jmardb/reports/a066029e-b75e-416a-8ad8-ab10dd66cd82\",\n      \"headline\": [\n        \"\u706b\u3000\u3000\u5c71\uff1a\u685c\u5cf6\\n\u65e5\u3000\u3000\u6642\uff1a2013\u5e7401\u670805\u65e507\u664233\u5206\uff08042233UTC\uff09 \u7b2c1\u5831\\n\u73fe\u3000\u3000\u8c61\uff1a\u7206\u767a\"\n      ],\n      \"datetime\": \"2013-01-05 07:40:12\"\n    },\n    {\n      \"title\": \"\u5674\u706b\u306b\u95a2\u3059\u308b\u706b\u5c71\u89b3\u6e2c\u5831\",\n      \"link\": \"http://api.aitc.jp/jmardb/reports/5fd6d300-d577-4737-b537-56dd73a6112a\",\n      \"headline\": [\n        \"\u706b\u3000\u3000\u5c71\uff1a\u685c\u5cf6\\n\u65e5\u3000\u3000\u6642\uff1a2013\u5e7401\u670805\u65e507\u664233\u5206\uff08042233UTC\uff09 \u7b2c2\u5831\\n\u73fe\u3000\u3000\u8c61\uff1a\u7206\u767a\"\n      ],\n      \"datetime\": \"2013-01-05 07:43:40\"\n    },\n    {\n      \"title\": \"\u5674\u706b\u306b\u95a2\u3059\u308b\u706b\u5c71\u89b3\u6e2c\u5831\",\n      \"link\": \"http://api.aitc.jp/jmardb/reports/8e15e84f-1bb2-4e7a-8b13-715779bde867\",\n      \"headline\": [\n        \"\u706b\u3000\u3000\u5c71\uff1a\u685c\u5cf6\\n\u65e5\u3000\u3000\u6642\uff1a2013\u5e7401\u670806\u65e523\u664249\u5206\uff08061449UTC\uff09 \u7b2c1\u5831\\n\u73fe\u3000\u3000\u8c61\uff1a\u7206\u767a\"\n      ],\n      \"datetime\": \"2013-01-06 23:53:11\"\n    },\n    {\n      \"title\": \"\u5674\u706b\u306b\u95a2\u3059\u308b\u706b\u5c71\u89b3\u6e2c\u5831\",\n      \"link\": \"http://api.aitc.jp/jmardb/reports/dd6cbada-8600-448f-9925-360a8febdaab\",\n      \"headline\": [\n        \"\u706b\u3000\u3000\u5c71\uff1a\u685c\u5cf6\\n\u65e5\u3000\u3000\u6642\uff1a2013\u5e7401\u670806\u65e523\u664249\u5206\uff08061449UTC\uff09 \u7b2c2\u5831\\n\u73fe\u3000\u3000\u8c61\uff1a\u7206\u767a\"\n      ],\n      \"datetime\": \"2013-01-06 23:59:11\"\n    },\n    {\n      \"title\": \"\u5674\u706b\u306b\u95a2\u3059\u308b\u706b\u5c71\u89b3\u6e2c\u5831\",\n      \"link\": \"http://api.aitc.jp/jmardb/reports/3fa658cc-e418-45a4-99af-ceaf64ce4e1a\",\n      \"headline\": [\n        \"\u706b\u3000\u3000\u5c71\uff1a\u685c\u5cf6\\n\u65e5\u3000\u3000\u6642\uff1a2013\u5e7401\u670807\u65e501\u664202\u5206\uff08061602UTC\uff09 \u7b2c1\u5831\\n\u73fe\u3000\u3000\u8c61\uff1a\u7206\u767a\"\n      ],\n      \"datetime\": \"2013-01-07 01:06:51\"\n    },\n    {\n      \"title\": \"\u5674\u706b\u306b\u95a2\u3059\u308b\u706b\u5c71\u89b3\u6e2c\u5831\",\n      \"link\": \"http://api.aitc.jp/jmardb/reports/761ef459-a93d-4b46-8cd6-c2d13ec4a85c\",\n      \"headline\": [\n        \"\u706b\u3000\u3000\u5c71\uff1a\u685c\u5cf6\\n\u65e5\u3000\u3000\u6642\uff1a2013\u5e7401\u670807\u65e501\u664202\u5206\uff08061602UTC\uff09 \u7b2c2\u5831\\n\u73fe\u3000\u3000\u8c61\uff1a\u7206\u767a\"\n      ],\n      \"datetime\": \"2013-01-07 01:13:49\"\n    }\n  ]\n}\n\n```\n\n\n\n\n", "tags": ["XML"]}