{"context": " More than 1 year has passed since last update.\u30b5\u30fc\u30af\u30eb\u95a2\u4fc2\u306eapi\u306f\u51fa\u6765\u305f\u306e\u3067\u3001\u6b21\u306f\u30a2\u30a4\u30c6\u30e0\u95a2\u4fc2\u306eapi\u3092\u4f5c\u308a\u307e\u3059\u3002\n\u4eca\u56de\u306f (\u7b2c42\u56de)Python mini Hack-a-thon \u306b\u53c2\u52a0\u3057\u3066\u4f5c\u696d\u3057\u3066\u307e\u3057\u305f\u3002 \nhttp://connpass.com/event/5775/\n\n\u3053\u3093\u306aUI\u304b\u3089\u767b\u9332\u3067\u304d\u308b\u3088\u3046\u306b\u3057\u307e\u3059\u3002\n\n\u65b0\u3057\u304f\u899a\u3048\u305f\u3053\u3068\n\nEntity\u306e\u8a2d\u8a08 \u306b\u3064\u3044\u3066\n\u3084\u308b\u3053\u3068\u306f\u524d\u56de\u3068\u307b\u3068\u3093\u3069\u4e00\u7dd2\u3067\u3059\u304c\u3001\u4eca\u56de\u306f\u767b\u9332\u3055\u308c\u308b\u30b5\u30e0\u30cd\u30a4\u30eb\u304c\uff11\u679a\u301c\uff14\u679a\u3068\u5909\u52d5\u3057\u3066\u3044\u307e\u3059\n#\u30b5\u30fc\u30af\u30eb\u304c\u8ca9\u58f2\u3057\u3066\u3044\u308b\u30a2\u30a4\u30c6\u30e0\u60c5\u5831\u3002\uff11\u30a8\u30f3\u30c6\u30a3\u30c6\u30a3=\uff11\u30a2\u30a4\u30c6\u30e0\nclass CircleItem(BaseModel):\n    circleInfomation = ndb.KeyProperty(kind=CircleInfomation)   # \u8ca9\u58f2\u30b5\u30fc\u30af\u30eb\n    name = ndb.StringProperty()         # \u30a2\u30a4\u30c6\u30e0\u540d\n    thumbUrls1 = ndb.StringProperty()   # \u30a2\u30a4\u30c6\u30e0\u30b5\u30e0\u30cd\u30a4\u30eb\u305d\u306e\uff11\n    thumbUrls2 = ndb.StringProperty()   # \u30a2\u30a4\u30c6\u30e0\u30b5\u30e0\u30cd\u30a4\u30eb\u305d\u306e\uff12\n    thumbUrls3 = ndb.StringProperty()   # \u30a2\u30a4\u30c6\u30e0\u30b5\u30e0\u30cd\u30a4\u30eb\u305d\u306e\uff13\n    thumbUrls4 = ndb.StringProperty()   # \u30a2\u30a4\u30c6\u30e0\u30b5\u30e0\u30cd\u30a4\u30eb\u305d\u306e\uff14\n    description = ndb.StringProperty()  # \u30a2\u30a4\u30c6\u30e0\u8aac\u660e\n    count = ndb.IntegerProperty() # \u8ca9\u58f2\u500b\u6570\n    price = ndb.IntegerProperty() # \u8ca9\u58f2\u91d1\u984d\n\n\u3068\u3001\u30b5\u30e0\u30cd\u30a4\u30eb\u3054\u3068\u306b\u30d7\u30ed\u30d1\u30c6\u30a3\u3092\u5165\u308c\u3066\u3082\u3044\u3044\u306e\u3067\u3059\u304c\u3001\u30b5\u30e0\u30cd\u30a4\u30eb\u30d7\u30ed\u30d1\u30c6\u30a3\u306e\u76ee\u7684\u306f\u3059\u3079\u3066\u4e00\u7dd2\u306a\u306e\u3067\n\u4e00\u3064\u306e\u30d7\u30ed\u30d1\u30c6\u30a3\u306b\u307e\u3068\u3081\u3066\u5165\u308c\u3066\u3057\u307e\u3063\u3066\u3082\u826f\u3055\u305d\u3046\u3067\u3059\u3002\n#\u30b5\u30fc\u30af\u30eb\u304c\u8ca9\u58f2\u3057\u3066\u3044\u308b\u30a2\u30a4\u30c6\u30e0\u60c5\u5831\u3002\uff11\u30a8\u30f3\u30c6\u30a3\u30c6\u30a3=\uff11\u30a2\u30a4\u30c6\u30e0\nclass CircleItem(BaseModel):\n    circleInfomation = ndb.KeyProperty(kind=CircleInfomation)   # \u8ca9\u58f2\u30b5\u30fc\u30af\u30eb\n    name = ndb.StringProperty()         # \u30a2\u30a4\u30c6\u30e0\u540d\n    thumbUrls = ndb.StringProperty(repeated=True) # \u30a2\u30a4\u30c6\u30e0\u30b5\u30e0\u30cd\u30a4\u30eb\u306eURL(\u6700\u5927\uff14\u3064)\n    description = ndb.StringProperty()  # \u30a2\u30a4\u30c6\u30e0\u8aac\u660e\n    count = ndb.IntegerProperty()       # \u8ca9\u58f2\u500b\u6570\n    price = ndb.IntegerProperty()       # \u8ca9\u58f2\u91d1\u984d\n\n\u3053\u3046\u3057\u307e\u3057\u305f\u3002\n\n\u30af\u30a8\u30ea\u306e\u30ab\u30fc\u30bd\u30eb\u51e6\u7406 \u306b\u3064\u3044\u3066\n\u30b5\u30fc\u30d0\u5185\u306b\u3042\u308b\u8907\u6570\u56de\u306e\u30ea\u30af\u30a8\u30b9\u30c8\u306b\u308f\u3051\u3066\u8868\u793a\u3055\u305b\u3088\u3046\u3068\u3057\u305f\u5834\u5408\u3001\u30ab\u30fc\u30bd\u30eb\u51e6\u7406\u3092\u884c\u3044\u307e\u3059\u3002\nAppEngineSDK \u306b\u306f\u4fbf\u5229\u306a\u95a2\u6570\u304c\u7528\u610f\u3055\u308c\u3066\u3044\u308b\u306e\u3067\u3001\u305d\u3061\u3089\u3092\u571f\u53f0\u306b\u7d9a\u304d\u304c\u3042\u308c\u3070URL\u3092\u6dfb\u4ed8\u3059\u308b\u3088\u3046\u306b\u3057\u3066\u307e\u3059\u3002\nURL\u751f\u6210\u306b\u306f webapp2#uri_for \u304c\u4fbf\u5229\u3067\u3057\u305f\u3002\n\n# DataStore\u3078\u30af\u30a8\u30ea\u5b9f\u884c\nentitylist, next_curs, more = CircleItem.query(CircleItem.circleInfomation==circleInfo.key).fetch_page(limit, start_cursor=cursor)\n\n# \u7d9a\u304d\u304c\u3042\u308b\u306a\u3089\u6b21\u306eURL\u3092\u751f\u6210\nnext_url = None\nif more:\n    next_url = webapp2.uri_for('Infomation',circleid=circleid,limit=limit,cursor=next_curs.urlsafe())\n\n# \u4eca\u56de\u306e\u30c7\u30fc\u30bf\u3092\u8a2d\u5b9a\nitemList = []\nfor e in entitylist:\n    item = Common.createCircleItemResponseFromEntity(e)\n    itemList.append(item)\n\nres = dict(\n    itemList = itemList,\n    next = next_url\n)\n\n# JSON\u5316\u3057\u3066\u30af\u30e9\u30a4\u30a2\u30f3\u30c8\u3078\u8fd4\u3059\nCommon.writeUserResponseSuccess(self, res )\n\n\u305f\u3068\u3048\u3070\nhttp://localhost:8080/user/api/circleitem/infomation?circleid=1\n\u3053\u3093\u306a\u30ea\u30af\u30a8\u30b9\u30c8\u3092\u6295\u3052\u305f\u5834\u5408\u3001\n{\n    \"response\":\n    {\n        \"status\":200\n    },\n    \"next\":\"http://localhost:8080/user/api/circleitem/infomation?circleid=1&limit=1&cursor=E-ABAIICLWoSZGV2fmZyZWVtYXJrZXQtYXBwchcLEgpDaXJjbGVJdGVtGICAgICA4JcJDBQ=\",\n    \"itemList\":\n        [\n            {\n                \"price\":1000,\n                \"thumbUrls\":[\n                    \"http://localhost:8080/user/api/circleitem/thumbnail?circleitemid=5171003185430528&no=0\"\n                ],\n                \"count\":12,\n                \"name\":\"\u30a2\u30a4\u30c6\u30e0\u540d\",\n                \"description\":\"\u30a2\u30a4\u30c6\u30e0\u8a73\u7d30\"}\n        ]\n}\n\n\u3053\u306e\u3088\u3046\u306a\u30ea\u30af\u30a8\u30b9\u30c8\u304c\u8fd4\u3063\u3066\u304d\u3066\u3001\"next\":\"http://localhost:8080/user/api/circleitem/infomation?circleid=1&limit=1&cursor=E-ABAIICLWoSZGV2fmZyZWVtYXJrZXQtYXBwchcLEgpDaXJjbGVJdGVtGICAgICA4JcJDBQ=\"\u3053\u306e\u90e8\u5206\u3092\u518d\u5ea6\u30b5\u30fc\u30d0\u306b\u6295\u3052\u308b\u3053\u3068\u3067\u9806\u756a\u306b\u53d6\u5f97\u3067\u304d\u307e\u3059\u3002\n\u305d\u3093\u306a\u611f\u3058\u3067\u4eca\u65e5\u307e\u3067\u306e\u30d6\u30e9\u30f3\u30c1\u304c\u3067\u304d\u307e\u3057\u305f\nhttps://github.com/nagai/freemarket/tree/20140412\n\n\u4eca\u5f8c\u306e\u8ab2\u984c\n\nUI\u306e\u8272\u3092\u5909\u66f4\u3057\u305f\u3044\n\u914d\u9001\u65b9\u6cd5\u304c\u4e0d\u660e\n\u30a8\u30e9\u30fc\u51e6\u7406\u3092\u6c7a\u3081\u305f\u3044\n\u30af\u30e9\u30a4\u30a2\u30f3\u30c8\u306e\u30ea\u30af\u30a8\u30b9\u30c8\u304c\u4e0d\u6b63\u3060\u3063\u305f\u5834\u5408\u306b\u3069\u3046\u3059\u308b\u304b\u3092\u304d\u3081\u305f\u307b\u3046\u304c\u304d\u3081\u308b\n\u30fb\u30a2\u30d7\u30ea\u518d\u8d77\u52d5\n\u30fb\u540c\u3058\u30ea\u30af\u30a8\u30b9\u30c8\u3092\u518d\u5ea6\u884c\u3046\n\u3042\u305f\u308a\u304c\u3044\u3044\u304b\u306a\uff1f\n\u30c6\u30b9\u30c8\u3092\u3057\u305f\u3044\n\u4eca\u306f chrome extention\u306eAdvanced REST client \u3092\u5229\u7528\u3057\u3066\u307d\u3061\u307d\u3061\u8a66\u3057\u3066\u3044\u308b\u306e\u3067\u3059\u304c\n\u305d\u308d\u305d\u308d\u624b\u9593\u304c\u5897\u3048\u3066\u304d\u305f\u306e\u3067\u306a\u306b\u304b\u5225\u306e\u65b9\u6cd5\u3092\u5c0e\u5165\u3057\u305f\u3044\u3067\u3059\u3002\n\n\n\u6b21\u56de\n\u6b21\u306f\u30af\u30e9\u30a4\u30a2\u30f3\u30c8\u5074\u3092\u4f5c\u308a\u307e\u3059\u3002\n\n\u30b5\u30fc\u30af\u30eb\u95a2\u4fc2\u306eapi\u306f\u51fa\u6765\u305f\u306e\u3067\u3001\u6b21\u306f\u30a2\u30a4\u30c6\u30e0\u95a2\u4fc2\u306eapi\u3092\u4f5c\u308a\u307e\u3059\u3002\n\u4eca\u56de\u306f (\u7b2c42\u56de)Python mini Hack-a-thon \u306b\u53c2\u52a0\u3057\u3066\u4f5c\u696d\u3057\u3066\u307e\u3057\u305f\u3002 \nhttp://connpass.com/event/5775/\n\n\n![additem.jpg](https://qiita-image-store.s3.amazonaws.com/0/2029/46534ad2-2330-62d8-2828-f3f963ab8bdd.jpeg \"additem.jpg\")\n\n\u3053\u3093\u306aUI\u304b\u3089\u767b\u9332\u3067\u304d\u308b\u3088\u3046\u306b\u3057\u307e\u3059\u3002\n\n\n##\u65b0\u3057\u304f\u899a\u3048\u305f\u3053\u3068\n\n### Entity\u306e\u8a2d\u8a08 \u306b\u3064\u3044\u3066\n\n\u3084\u308b\u3053\u3068\u306f\u524d\u56de\u3068\u307b\u3068\u3093\u3069\u4e00\u7dd2\u3067\u3059\u304c\u3001\u4eca\u56de\u306f\u767b\u9332\u3055\u308c\u308b\u30b5\u30e0\u30cd\u30a4\u30eb\u304c\uff11\u679a\u301c\uff14\u679a\u3068\u5909\u52d5\u3057\u3066\u3044\u307e\u3059\n\n```Python\n#\u30b5\u30fc\u30af\u30eb\u304c\u8ca9\u58f2\u3057\u3066\u3044\u308b\u30a2\u30a4\u30c6\u30e0\u60c5\u5831\u3002\uff11\u30a8\u30f3\u30c6\u30a3\u30c6\u30a3=\uff11\u30a2\u30a4\u30c6\u30e0\nclass CircleItem(BaseModel):\n    circleInfomation = ndb.KeyProperty(kind=CircleInfomation)   # \u8ca9\u58f2\u30b5\u30fc\u30af\u30eb\n    name = ndb.StringProperty()     \t# \u30a2\u30a4\u30c6\u30e0\u540d\n    thumbUrls1 = ndb.StringProperty() \t# \u30a2\u30a4\u30c6\u30e0\u30b5\u30e0\u30cd\u30a4\u30eb\u305d\u306e\uff11\n    thumbUrls2 = ndb.StringProperty() \t# \u30a2\u30a4\u30c6\u30e0\u30b5\u30e0\u30cd\u30a4\u30eb\u305d\u306e\uff12\n    thumbUrls3 = ndb.StringProperty() \t# \u30a2\u30a4\u30c6\u30e0\u30b5\u30e0\u30cd\u30a4\u30eb\u305d\u306e\uff13\n    thumbUrls4 = ndb.StringProperty() \t# \u30a2\u30a4\u30c6\u30e0\u30b5\u30e0\u30cd\u30a4\u30eb\u305d\u306e\uff14\n    description = ndb.StringProperty()\t# \u30a2\u30a4\u30c6\u30e0\u8aac\u660e\n    count = ndb.IntegerProperty() # \u8ca9\u58f2\u500b\u6570\n    price = ndb.IntegerProperty() # \u8ca9\u58f2\u91d1\u984d\n```\n\n\u3068\u3001\u30b5\u30e0\u30cd\u30a4\u30eb\u3054\u3068\u306b\u30d7\u30ed\u30d1\u30c6\u30a3\u3092\u5165\u308c\u3066\u3082\u3044\u3044\u306e\u3067\u3059\u304c\u3001\u30b5\u30e0\u30cd\u30a4\u30eb\u30d7\u30ed\u30d1\u30c6\u30a3\u306e\u76ee\u7684\u306f\u3059\u3079\u3066\u4e00\u7dd2\u306a\u306e\u3067\n\u4e00\u3064\u306e\u30d7\u30ed\u30d1\u30c6\u30a3\u306b\u307e\u3068\u3081\u3066\u5165\u308c\u3066\u3057\u307e\u3063\u3066\u3082\u826f\u3055\u305d\u3046\u3067\u3059\u3002\n\n\n```Python\n#\u30b5\u30fc\u30af\u30eb\u304c\u8ca9\u58f2\u3057\u3066\u3044\u308b\u30a2\u30a4\u30c6\u30e0\u60c5\u5831\u3002\uff11\u30a8\u30f3\u30c6\u30a3\u30c6\u30a3=\uff11\u30a2\u30a4\u30c6\u30e0\nclass CircleItem(BaseModel):\n    circleInfomation = ndb.KeyProperty(kind=CircleInfomation)   # \u8ca9\u58f2\u30b5\u30fc\u30af\u30eb\n    name = ndb.StringProperty()\t\t\t# \u30a2\u30a4\u30c6\u30e0\u540d\n    thumbUrls = ndb.StringProperty(repeated=True) # \u30a2\u30a4\u30c6\u30e0\u30b5\u30e0\u30cd\u30a4\u30eb\u306eURL(\u6700\u5927\uff14\u3064)\n    description = ndb.StringProperty()\t# \u30a2\u30a4\u30c6\u30e0\u8aac\u660e\n    count = ndb.IntegerProperty() \t\t# \u8ca9\u58f2\u500b\u6570\n    price = ndb.IntegerProperty() \t\t# \u8ca9\u58f2\u91d1\u984d\n```\n\n\u3053\u3046\u3057\u307e\u3057\u305f\u3002\n\n\n### \u30af\u30a8\u30ea\u306e\u30ab\u30fc\u30bd\u30eb\u51e6\u7406 \u306b\u3064\u3044\u3066\n\n\u30b5\u30fc\u30d0\u5185\u306b\u3042\u308b\u8907\u6570\u56de\u306e\u30ea\u30af\u30a8\u30b9\u30c8\u306b\u308f\u3051\u3066\u8868\u793a\u3055\u305b\u3088\u3046\u3068\u3057\u305f\u5834\u5408\u3001\u30ab\u30fc\u30bd\u30eb\u51e6\u7406\u3092\u884c\u3044\u307e\u3059\u3002\nAppEngineSDK \u306b\u306f\u4fbf\u5229\u306a\u95a2\u6570\u304c\u7528\u610f\u3055\u308c\u3066\u3044\u308b\u306e\u3067\u3001\u305d\u3061\u3089\u3092\u571f\u53f0\u306b\u7d9a\u304d\u304c\u3042\u308c\u3070URL\u3092\u6dfb\u4ed8\u3059\u308b\u3088\u3046\u306b\u3057\u3066\u307e\u3059\u3002\nURL\u751f\u6210\u306b\u306f webapp2#uri_for \u304c\u4fbf\u5229\u3067\u3057\u305f\u3002\n\n\n```Python\n\n# DataStore\u3078\u30af\u30a8\u30ea\u5b9f\u884c\nentitylist, next_curs, more = CircleItem.query(CircleItem.circleInfomation==circleInfo.key).fetch_page(limit, start_cursor=cursor)\n\n# \u7d9a\u304d\u304c\u3042\u308b\u306a\u3089\u6b21\u306eURL\u3092\u751f\u6210\nnext_url = None\nif more:\n\tnext_url = webapp2.uri_for('Infomation',circleid=circleid,limit=limit,cursor=next_curs.urlsafe())\n\n# \u4eca\u56de\u306e\u30c7\u30fc\u30bf\u3092\u8a2d\u5b9a\nitemList = []\nfor e in entitylist:\n\titem = Common.createCircleItemResponseFromEntity(e)\n\titemList.append(item)\n\nres = dict(\n\titemList = itemList,\n\tnext = next_url\n)\n\n# JSON\u5316\u3057\u3066\u30af\u30e9\u30a4\u30a2\u30f3\u30c8\u3078\u8fd4\u3059\nCommon.writeUserResponseSuccess(self, res )\n```\n\n\u305f\u3068\u3048\u3070\nhttp://localhost:8080/user/api/circleitem/infomation?circleid=1\n\u3053\u3093\u306a\u30ea\u30af\u30a8\u30b9\u30c8\u3092\u6295\u3052\u305f\u5834\u5408\u3001\n\n```JSON\n{\n\t\"response\":\n\t{\n\t\t\"status\":200\n\t},\n\t\"next\":\"http://localhost:8080/user/api/circleitem/infomation?circleid=1&limit=1&cursor=E-ABAIICLWoSZGV2fmZyZWVtYXJrZXQtYXBwchcLEgpDaXJjbGVJdGVtGICAgICA4JcJDBQ=\",\n\t\"itemList\":\n\t\t[\n\t\t\t{\n\t\t\t\t\"price\":1000,\n\t\t\t\t\"thumbUrls\":[\n\t\t\t\t\t\"http://localhost:8080/user/api/circleitem/thumbnail?circleitemid=5171003185430528&no=0\"\n\t\t\t\t],\n\t\t\t\t\"count\":12,\n\t\t\t\t\"name\":\"\u30a2\u30a4\u30c6\u30e0\u540d\",\n\t\t\t\t\"description\":\"\u30a2\u30a4\u30c6\u30e0\u8a73\u7d30\"}\n\t\t]\n}\n```\n\n\u3053\u306e\u3088\u3046\u306a\u30ea\u30af\u30a8\u30b9\u30c8\u304c\u8fd4\u3063\u3066\u304d\u3066\u3001`\"next\":\"http://localhost:8080/user/api/circleitem/infomation?circleid=1&limit=1&cursor=E-ABAIICLWoSZGV2fmZyZWVtYXJrZXQtYXBwchcLEgpDaXJjbGVJdGVtGICAgICA4JcJDBQ=\"`\u3053\u306e\u90e8\u5206\u3092\u518d\u5ea6\u30b5\u30fc\u30d0\u306b\u6295\u3052\u308b\u3053\u3068\u3067\u9806\u756a\u306b\u53d6\u5f97\u3067\u304d\u307e\u3059\u3002\n\n\n\n\u305d\u3093\u306a\u611f\u3058\u3067\u4eca\u65e5\u307e\u3067\u306e\u30d6\u30e9\u30f3\u30c1\u304c\u3067\u304d\u307e\u3057\u305f\nhttps://github.com/nagai/freemarket/tree/20140412\n\n\n\n\n##\u4eca\u5f8c\u306e\u8ab2\u984c\n\n* UI\u306e\u8272\u3092\u5909\u66f4\u3057\u305f\u3044\n* \u914d\u9001\u65b9\u6cd5\u304c\u4e0d\u660e\n* \u30a8\u30e9\u30fc\u51e6\u7406\u3092\u6c7a\u3081\u305f\u3044\n\u30af\u30e9\u30a4\u30a2\u30f3\u30c8\u306e\u30ea\u30af\u30a8\u30b9\u30c8\u304c\u4e0d\u6b63\u3060\u3063\u305f\u5834\u5408\u306b\u3069\u3046\u3059\u308b\u304b\u3092\u304d\u3081\u305f\u307b\u3046\u304c\u304d\u3081\u308b\n\u30fb\u30a2\u30d7\u30ea\u518d\u8d77\u52d5\n\u30fb\u540c\u3058\u30ea\u30af\u30a8\u30b9\u30c8\u3092\u518d\u5ea6\u884c\u3046\n\u3042\u305f\u308a\u304c\u3044\u3044\u304b\u306a\uff1f\n\n* \u30c6\u30b9\u30c8\u3092\u3057\u305f\u3044\n\u4eca\u306f chrome extention\u306eAdvanced REST client \u3092\u5229\u7528\u3057\u3066\u307d\u3061\u307d\u3061\u8a66\u3057\u3066\u3044\u308b\u306e\u3067\u3059\u304c\n\u305d\u308d\u305d\u308d\u624b\u9593\u304c\u5897\u3048\u3066\u304d\u305f\u306e\u3067\u306a\u306b\u304b\u5225\u306e\u65b9\u6cd5\u3092\u5c0e\u5165\u3057\u305f\u3044\u3067\u3059\u3002\n\n##\u6b21\u56de\n\u6b21\u306f\u30af\u30e9\u30a4\u30a2\u30f3\u30c8\u5074\u3092\u4f5c\u308a\u307e\u3059\u3002\n", "tags": ["\u5373\u58f2\u4f1a\u30b5\u30fc\u30d3\u30b9", "Python", "webapp2", "GAE"]}